%YAML 1.1
%TAG !u! tag:unity3d.com,2011:
--- !u!29 &1
OcclusionCullingSettings:
  m_ObjectHideFlags: 0
  serializedVersion: 2
  m_OcclusionBakeSettings:
    smallestOccluder: 5
    smallestHole: 0.25
    backfaceThreshold: 100
  m_SceneGUID: 00000000000000000000000000000000
  m_OcclusionCullingData: {fileID: 0}
--- !u!104 &2
RenderSettings:
  m_ObjectHideFlags: 0
  serializedVersion: 9
  m_Fog: 0
  m_FogColor: {r: 0.5, g: 0.5, b: 0.5, a: 1}
  m_FogMode: 3
  m_FogDensity: 0.01
  m_LinearFogStart: 0
  m_LinearFogEnd: 300
  m_AmbientSkyColor: {r: 0.212, g: 0.227, b: 0.259, a: 1}
  m_AmbientEquatorColor: {r: 0.114, g: 0.125, b: 0.133, a: 1}
  m_AmbientGroundColor: {r: 0.047, g: 0.043, b: 0.035, a: 1}
  m_AmbientIntensity: 1
  m_AmbientMode: 0
  m_SubtractiveShadowColor: {r: 0.42, g: 0.478, b: 0.627, a: 1}
  m_SkyboxMaterial: {fileID: 10304, guid: 0000000000000000f000000000000000, type: 0}
  m_HaloStrength: 0.5
  m_FlareStrength: 1
  m_FlareFadeSpeed: 3
  m_HaloTexture: {fileID: 0}
  m_SpotCookie: {fileID: 10001, guid: 0000000000000000e000000000000000, type: 0}
  m_DefaultReflectionMode: 0
  m_DefaultReflectionResolution: 128
  m_ReflectionBounces: 1
  m_ReflectionIntensity: 1
  m_CustomReflection: {fileID: 0}
  m_Sun: {fileID: 0}
  m_IndirectSpecularColor: {r: 0.44657898, g: 0.4964133, b: 0.5748178, a: 1}
  m_UseRadianceAmbientProbe: 0
--- !u!157 &3
LightmapSettings:
  m_ObjectHideFlags: 0
  serializedVersion: 11
  m_GIWorkflowMode: 0
  m_GISettings:
    serializedVersion: 2
    m_BounceScale: 1
    m_IndirectOutputScale: 1
    m_AlbedoBoost: 1
    m_TemporalCoherenceThreshold: 1
    m_EnvironmentLightingMode: 0
    m_EnableBakedLightmaps: 1
    m_EnableRealtimeLightmaps: 1
  m_LightmapEditorSettings:
    serializedVersion: 10
    m_Resolution: 2
    m_BakeResolution: 40
    m_AtlasSize: 1024
    m_AO: 0
    m_AOMaxDistance: 1
    m_CompAOExponent: 0
    m_CompAOExponentDirect: 0
    m_Padding: 2
    m_LightmapParameters: {fileID: 0}
    m_LightmapsBakeMode: 1
    m_TextureCompression: 1
    m_FinalGather: 0
    m_FinalGatherFiltering: 1
    m_FinalGatherRayCount: 1024
    m_ReflectionCompression: 2
    m_MixedBakeMode: 1
    m_BakeBackend: 0
    m_PVRSampling: 1
    m_PVRDirectSampleCount: 32
    m_PVRSampleCount: 500
    m_PVRBounces: 2
    m_PVRFilterTypeDirect: 0
    m_PVRFilterTypeIndirect: 0
    m_PVRFilterTypeAO: 0
    m_PVRFilteringMode: 0
    m_PVRCulling: 1
    m_PVRFilteringGaussRadiusDirect: 1
    m_PVRFilteringGaussRadiusIndirect: 5
    m_PVRFilteringGaussRadiusAO: 2
    m_PVRFilteringAtrousPositionSigmaDirect: 0.5
    m_PVRFilteringAtrousPositionSigmaIndirect: 2
    m_PVRFilteringAtrousPositionSigmaAO: 1
    m_ShowResolutionOverlay: 1
  m_LightingDataAsset: {fileID: 0}
  m_UseShadowmask: 0
--- !u!196 &4
NavMeshSettings:
  serializedVersion: 2
  m_ObjectHideFlags: 0
  m_BuildSettings:
    serializedVersion: 2
    agentTypeID: 0
    agentRadius: 0.5
    agentHeight: 2
    agentSlope: 45
    agentClimb: 0.4
    ledgeDropHeight: 0
    maxJumpAcrossDistance: 0
    minRegionArea: 2
    manualCellSize: 0
    cellSize: 0.16666667
    manualTileSize: 0
    tileSize: 256
    accuratePlacement: 0
    debug:
      m_Flags: 0
  m_NavMeshData: {fileID: 0}
--- !u!1 &785476639
GameObject:
  m_ObjectHideFlags: 0
  m_CorrespondingSourceObject: {fileID: 179100, guid: 4f08c1e18e3fd2b438baf97a89b44f8e,
    type: 2}
  m_PrefabInternal: {fileID: 1818882113}
  serializedVersion: 6
  m_Component:
  - component: {fileID: 785476640}
  - component: {fileID: 785476642}
  - component: {fileID: 785476641}
  m_Layer: 0
  m_Name: default
  m_TagString: Untagged
  m_Icon: {fileID: 0}
  m_NavMeshLayer: 0
  m_StaticEditorFlags: 0
  m_IsActive: 1
--- !u!4 &785476640
Transform:
  m_ObjectHideFlags: 0
  m_CorrespondingSourceObject: {fileID: 470622, guid: 4f08c1e18e3fd2b438baf97a89b44f8e,
    type: 2}
  m_PrefabInternal: {fileID: 1818882113}
  m_GameObject: {fileID: 785476639}
  m_LocalRotation: {x: 0, y: 0, z: 0, w: 1}
  m_LocalPosition: {x: 0, y: 0, z: 0}
  m_LocalScale: {x: 1, y: 1, z: 1}
  m_Children: []
  m_Father: {fileID: 2045485429}
  m_RootOrder: 0
  m_LocalEulerAnglesHint: {x: 0, y: 0, z: 0}
--- !u!23 &785476641
MeshRenderer:
  m_ObjectHideFlags: 0
  m_CorrespondingSourceObject: {fileID: 2328894, guid: 4f08c1e18e3fd2b438baf97a89b44f8e,
    type: 2}
  m_PrefabInternal: {fileID: 1818882113}
  m_GameObject: {fileID: 785476639}
  m_Enabled: 1
  m_CastShadows: 1
  m_ReceiveShadows: 1
  m_DynamicOccludee: 1
  m_MotionVectors: 1
  m_LightProbeUsage: 1
  m_ReflectionProbeUsage: 1
  m_RenderingLayerMask: 4294967295
  m_Materials:
  - {fileID: 2100000, guid: 481a860f6e18aaa4987377d42db93e02, type: 2}
  m_StaticBatchInfo:
    firstSubMesh: 0
    subMeshCount: 0
  m_StaticBatchRoot: {fileID: 0}
  m_ProbeAnchor: {fileID: 0}
  m_LightProbeVolumeOverride: {fileID: 0}
  m_ScaleInLightmap: 1
  m_PreserveUVs: 0
  m_IgnoreNormalsForChartDetection: 0
  m_ImportantGI: 0
  m_StitchLightmapSeams: 0
  m_SelectedEditorRenderState: 3
  m_MinimumChartSize: 4
  m_AutoUVMaxDistance: 0.5
  m_AutoUVMaxAngle: 89
  m_LightmapParameters: {fileID: 0}
  m_SortingLayerID: 0
  m_SortingLayer: 0
  m_SortingOrder: 0
--- !u!33 &785476642
MeshFilter:
  m_ObjectHideFlags: 0
  m_CorrespondingSourceObject: {fileID: 3356026, guid: 4f08c1e18e3fd2b438baf97a89b44f8e,
    type: 2}
  m_PrefabInternal: {fileID: 1818882113}
  m_GameObject: {fileID: 785476639}
  m_Mesh: {fileID: 4300000, guid: d753f96404dfc7e439e32d9cfdf6d982, type: 3}
--- !u!1 &1087567849
GameObject:
  m_ObjectHideFlags: 0
  m_CorrespondingSourceObject: {fileID: 112102, guid: a1d761911149f7845aac6ec33c36f40e,
    type: 2}
  m_PrefabInternal: {fileID: 1311272104}
  serializedVersion: 6
  m_Component:
  - component: {fileID: 1087567850}
  - component: {fileID: 1087567852}
  - component: {fileID: 1087567851}
  m_Layer: 0
  m_Name: default
  m_TagString: Untagged
  m_Icon: {fileID: 0}
  m_NavMeshLayer: 0
  m_StaticEditorFlags: 0
  m_IsActive: 1
--- !u!4 &1087567850
Transform:
  m_ObjectHideFlags: 0
  m_CorrespondingSourceObject: {fileID: 404718, guid: a1d761911149f7845aac6ec33c36f40e,
    type: 2}
  m_PrefabInternal: {fileID: 1311272104}
  m_GameObject: {fileID: 1087567849}
  m_LocalRotation: {x: 0, y: 0, z: 0, w: 1}
  m_LocalPosition: {x: 0, y: 0, z: 0}
  m_LocalScale: {x: 1, y: 1, z: 1}
  m_Children: []
  m_Father: {fileID: 2140870669}
  m_RootOrder: 0
  m_LocalEulerAnglesHint: {x: 0, y: 0, z: 0}
--- !u!23 &1087567851
MeshRenderer:
  m_ObjectHideFlags: 0
  m_CorrespondingSourceObject: {fileID: 2326410, guid: a1d761911149f7845aac6ec33c36f40e,
    type: 2}
  m_PrefabInternal: {fileID: 1311272104}
  m_GameObject: {fileID: 1087567849}
  m_Enabled: 1
  m_CastShadows: 1
  m_ReceiveShadows: 1
  m_DynamicOccludee: 1
  m_MotionVectors: 1
  m_LightProbeUsage: 1
  m_ReflectionProbeUsage: 1
  m_RenderingLayerMask: 4294967295
  m_Materials:
  - {fileID: 2100000, guid: e654a3066dff72f4c92bcf01157d85d0, type: 2}
  m_StaticBatchInfo:
    firstSubMesh: 0
    subMeshCount: 0
  m_StaticBatchRoot: {fileID: 0}
  m_ProbeAnchor: {fileID: 0}
  m_LightProbeVolumeOverride: {fileID: 0}
  m_ScaleInLightmap: 1
  m_PreserveUVs: 0
  m_IgnoreNormalsForChartDetection: 0
  m_ImportantGI: 0
  m_StitchLightmapSeams: 0
  m_SelectedEditorRenderState: 3
  m_MinimumChartSize: 4
  m_AutoUVMaxDistance: 0.5
  m_AutoUVMaxAngle: 89
  m_LightmapParameters: {fileID: 0}
  m_SortingLayerID: 0
  m_SortingLayer: 0
  m_SortingOrder: 0
--- !u!33 &1087567852
MeshFilter:
  m_ObjectHideFlags: 0
  m_CorrespondingSourceObject: {fileID: 3358688, guid: a1d761911149f7845aac6ec33c36f40e,
    type: 2}
  m_PrefabInternal: {fileID: 1311272104}
  m_GameObject: {fileID: 1087567849}
  m_Mesh: {fileID: 4300000, guid: 19750d5bac51de747bf2425c4f3a98db, type: 3}
--- !u!1001 &1311272104
Prefab:
  m_ObjectHideFlags: 0
  serializedVersion: 2
  m_Modification:
    m_TransformParent: {fileID: 0}
    m_Modifications:
    - target: {fileID: 424814, guid: a1d761911149f7845aac6ec33c36f40e, type: 2}
      propertyPath: m_LocalPosition.x
      value: 19.07
      objectReference: {fileID: 0}
    - target: {fileID: 424814, guid: a1d761911149f7845aac6ec33c36f40e, type: 2}
      propertyPath: m_LocalPosition.y
      value: 64.3533
      objectReference: {fileID: 0}
    - target: {fileID: 424814, guid: a1d761911149f7845aac6ec33c36f40e, type: 2}
      propertyPath: m_LocalPosition.z
      value: 19.969467
      objectReference: {fileID: 0}
    - target: {fileID: 424814, guid: a1d761911149f7845aac6ec33c36f40e, type: 2}
      propertyPath: m_LocalRotation.x
      value: 0
      objectReference: {fileID: 0}
    - target: {fileID: 424814, guid: a1d761911149f7845aac6ec33c36f40e, type: 2}
      propertyPath: m_LocalRotation.y
      value: 0
      objectReference: {fileID: 0}
    - target: {fileID: 424814, guid: a1d761911149f7845aac6ec33c36f40e, type: 2}
      propertyPath: m_LocalRotation.z
      value: 0
      objectReference: {fileID: 0}
    - target: {fileID: 424814, guid: a1d761911149f7845aac6ec33c36f40e, type: 2}
      propertyPath: m_LocalRotation.w
      value: 1
      objectReference: {fileID: 0}
    - target: {fileID: 424814, guid: a1d761911149f7845aac6ec33c36f40e, type: 2}
      propertyPath: m_RootOrder
      value: 4
      objectReference: {fileID: 0}
    m_RemovedComponents: []
  m_SourcePrefab: {fileID: 100100000, guid: a1d761911149f7845aac6ec33c36f40e, type: 2}
  m_RootGameObject: {fileID: 2140870668}
  m_IsPrefabAsset: 0
--- !u!1 &1435404300
GameObject:
  m_ObjectHideFlags: 0
  m_CorrespondingSourceObject: {fileID: 185836, guid: 555628e97d23ecc419d3c0fa06b08777,
    type: 2}
  m_PrefabInternal: {fileID: 1513128798}
  serializedVersion: 6
  m_Component:
  - component: {fileID: 1435404301}
  m_Layer: 0
  m_Name: mushroom_All2
  m_TagString: Untagged
  m_Icon: {fileID: 0}
  m_NavMeshLayer: 0
  m_StaticEditorFlags: 0
  m_IsActive: 1
--- !u!4 &1435404301
Transform:
  m_ObjectHideFlags: 0
  m_CorrespondingSourceObject: {fileID: 470142, guid: 555628e97d23ecc419d3c0fa06b08777,
    type: 2}
  m_PrefabInternal: {fileID: 1513128798}
  m_GameObject: {fileID: 1435404300}
  m_LocalRotation: {x: 0, y: 0, z: 0, w: 1}
  m_LocalPosition: {x: 21.62, y: 64.365425, z: 21.43}
  m_LocalScale: {x: 0.306731, y: 0.306731, z: 0.306731}
  m_Children:
  - {fileID: 1586993619}
  m_Father: {fileID: 0}
  m_RootOrder: 3
  m_LocalEulerAnglesHint: {x: 0, y: 0, z: 0}
--- !u!1001 &1513128798
Prefab:
  m_ObjectHideFlags: 0
  serializedVersion: 2
  m_Modification:
    m_TransformParent: {fileID: 0}
    m_Modifications:
    - target: {fileID: 470142, guid: 555628e97d23ecc419d3c0fa06b08777, type: 2}
      propertyPath: m_LocalPosition.x
      value: 21.62
      objectReference: {fileID: 0}
    - target: {fileID: 470142, guid: 555628e97d23ecc419d3c0fa06b08777, type: 2}
      propertyPath: m_LocalPosition.y
      value: 64.365425
      objectReference: {fileID: 0}
    - target: {fileID: 470142, guid: 555628e97d23ecc419d3c0fa06b08777, type: 2}
      propertyPath: m_LocalPosition.z
      value: 21.43
      objectReference: {fileID: 0}
    - target: {fileID: 470142, guid: 555628e97d23ecc419d3c0fa06b08777, type: 2}
      propertyPath: m_LocalRotation.x
      value: 0
      objectReference: {fileID: 0}
    - target: {fileID: 470142, guid: 555628e97d23ecc419d3c0fa06b08777, type: 2}
      propertyPath: m_LocalRotation.y
      value: 0
      objectReference: {fileID: 0}
    - target: {fileID: 470142, guid: 555628e97d23ecc419d3c0fa06b08777, type: 2}
      propertyPath: m_LocalRotation.z
      value: 0
      objectReference: {fileID: 0}
    - target: {fileID: 470142, guid: 555628e97d23ecc419d3c0fa06b08777, type: 2}
      propertyPath: m_LocalRotation.w
      value: 1
      objectReference: {fileID: 0}
    - target: {fileID: 470142, guid: 555628e97d23ecc419d3c0fa06b08777, type: 2}
      propertyPath: m_RootOrder
      value: 3
      objectReference: {fileID: 0}
    m_RemovedComponents: []
  m_SourcePrefab: {fileID: 100100000, guid: 555628e97d23ecc419d3c0fa06b08777, type: 2}
  m_RootGameObject: {fileID: 1435404300}
  m_IsPrefabAsset: 0
--- !u!1 &1586993618
GameObject:
  m_ObjectHideFlags: 0
  m_CorrespondingSourceObject: {fileID: 199150, guid: 555628e97d23ecc419d3c0fa06b08777,
    type: 2}
  m_PrefabInternal: {fileID: 1513128798}
  serializedVersion: 6
  m_Component:
  - component: {fileID: 1586993619}
  - component: {fileID: 1586993621}
  - component: {fileID: 1586993620}
  m_Layer: 0
  m_Name: default
  m_TagString: Untagged
  m_Icon: {fileID: 0}
  m_NavMeshLayer: 0
  m_StaticEditorFlags: 0
  m_IsActive: 1
--- !u!4 &1586993619
Transform:
  m_ObjectHideFlags: 0
  m_CorrespondingSourceObject: {fileID: 462266, guid: 555628e97d23ecc419d3c0fa06b08777,
    type: 2}
  m_PrefabInternal: {fileID: 1513128798}
  m_GameObject: {fileID: 1586993618}
  m_LocalRotation: {x: 0, y: 0, z: 0, w: 1}
  m_LocalPosition: {x: 0, y: 0, z: 0}
  m_LocalScale: {x: 1, y: 1, z: 1}
  m_Children: []
  m_Father: {fileID: 1435404301}
  m_RootOrder: 0
  m_LocalEulerAnglesHint: {x: 0, y: 0, z: 0}
--- !u!23 &1586993620
MeshRenderer:
  m_ObjectHideFlags: 0
  m_CorrespondingSourceObject: {fileID: 2359344, guid: 555628e97d23ecc419d3c0fa06b08777,
    type: 2}
  m_PrefabInternal: {fileID: 1513128798}
  m_GameObject: {fileID: 1586993618}
  m_Enabled: 1
  m_CastShadows: 1
  m_ReceiveShadows: 1
  m_DynamicOccludee: 1
  m_MotionVectors: 1
  m_LightProbeUsage: 1
  m_ReflectionProbeUsage: 1
  m_RenderingLayerMask: 4294967295
  m_Materials:
  - {fileID: 2100000, guid: 42931dbfc018339448e37d7c7dfc35dd, type: 2}
  m_StaticBatchInfo:
    firstSubMesh: 0
    subMeshCount: 0
  m_StaticBatchRoot: {fileID: 0}
  m_ProbeAnchor: {fileID: 0}
  m_LightProbeVolumeOverride: {fileID: 0}
  m_ScaleInLightmap: 1
  m_PreserveUVs: 0
  m_IgnoreNormalsForChartDetection: 0
  m_ImportantGI: 0
  m_StitchLightmapSeams: 0
  m_SelectedEditorRenderState: 3
  m_MinimumChartSize: 4
  m_AutoUVMaxDistance: 0.5
  m_AutoUVMaxAngle: 89
  m_LightmapParameters: {fileID: 0}
  m_SortingLayerID: 0
  m_SortingLayer: 0
  m_SortingOrder: 0
--- !u!33 &1586993621
MeshFilter:
  m_ObjectHideFlags: 0
  m_CorrespondingSourceObject: {fileID: 3318732, guid: 555628e97d23ecc419d3c0fa06b08777,
    type: 2}
  m_PrefabInternal: {fileID: 1513128798}
  m_GameObject: {fileID: 1586993618}
  m_Mesh: {fileID: 4300000, guid: d4858c071646fad43803c0c1a10d1434, type: 3}
--- !u!1001 &1818882113
Prefab:
  m_ObjectHideFlags: 0
  serializedVersion: 2
  m_Modification:
    m_TransformParent: {fileID: 0}
    m_Modifications:
    - target: {fileID: 497000, guid: 4f08c1e18e3fd2b438baf97a89b44f8e, type: 2}
      propertyPath: m_LocalPosition.x
      value: 25.52
      objectReference: {fileID: 0}
    - target: {fileID: 497000, guid: 4f08c1e18e3fd2b438baf97a89b44f8e, type: 2}
      propertyPath: m_LocalPosition.y
      value: 64.08699
      objectReference: {fileID: 0}
    - target: {fileID: 497000, guid: 4f08c1e18e3fd2b438baf97a89b44f8e, type: 2}
      propertyPath: m_LocalPosition.z
      value: 20.4
      objectReference: {fileID: 0}
    - target: {fileID: 497000, guid: 4f08c1e18e3fd2b438baf97a89b44f8e, type: 2}
      propertyPath: m_LocalRotation.x
      value: 0
      objectReference: {fileID: 0}
    - target: {fileID: 497000, guid: 4f08c1e18e3fd2b438baf97a89b44f8e, type: 2}
      propertyPath: m_LocalRotation.y
      value: 0
      objectReference: {fileID: 0}
    - target: {fileID: 497000, guid: 4f08c1e18e3fd2b438baf97a89b44f8e, type: 2}
      propertyPath: m_LocalRotation.z
      value: 0
      objectReference: {fileID: 0}
    - target: {fileID: 497000, guid: 4f08c1e18e3fd2b438baf97a89b44f8e, type: 2}
      propertyPath: m_LocalRotation.w
      value: 1
      objectReference: {fileID: 0}
    - target: {fileID: 497000, guid: 4f08c1e18e3fd2b438baf97a89b44f8e, type: 2}
      propertyPath: m_RootOrder
      value: 2
      objectReference: {fileID: 0}
    m_RemovedComponents: []
  m_SourcePrefab: {fileID: 100100000, guid: 4f08c1e18e3fd2b438baf97a89b44f8e, type: 2}
  m_RootGameObject: {fileID: 2045485428}
  m_IsPrefabAsset: 0
--- !u!1 &1914341889
GameObject:
  m_ObjectHideFlags: 0
  m_CorrespondingSourceObject: {fileID: 0}
  m_PrefabInternal: {fileID: 0}
  serializedVersion: 6
  m_Component:
  - component: {fileID: 1914341891}
  - component: {fileID: 1914341890}
  m_Layer: 0
  m_Name: Directional Light
  m_TagString: Untagged
  m_Icon: {fileID: 0}
  m_NavMeshLayer: 0
  m_StaticEditorFlags: 0
  m_IsActive: 1
--- !u!108 &1914341890
Light:
  m_ObjectHideFlags: 0
  m_CorrespondingSourceObject: {fileID: 0}
  m_PrefabInternal: {fileID: 0}
  m_GameObject: {fileID: 1914341889}
  m_Enabled: 1
  serializedVersion: 8
  m_Type: 1
  m_Color: {r: 1, g: 0.95686275, b: 0.8392157, a: 1}
  m_Intensity: 1
  m_Range: 10
  m_SpotAngle: 30
  m_CookieSize: 10
  m_Shadows:
    m_Type: 2
    m_Resolution: -1
    m_CustomResolution: -1
    m_Strength: 1
    m_Bias: 0.05
    m_NormalBias: 0.4
    m_NearPlane: 0.2
  m_Cookie: {fileID: 0}
  m_DrawHalo: 0
  m_Flare: {fileID: 0}
  m_RenderMode: 0
  m_CullingMask:
    serializedVersion: 2
    m_Bits: 4294967295
  m_Lightmapping: 4
  m_LightShadowCasterMode: 0
  m_AreaSize: {x: 1, y: 1}
  m_BounceIntensity: 1
  m_ColorTemperature: 6570
  m_UseColorTemperature: 0
  m_ShadowRadius: 0
  m_ShadowAngle: 0
--- !u!4 &1914341891
Transform:
  m_ObjectHideFlags: 0
  m_CorrespondingSourceObject: {fileID: 0}
  m_PrefabInternal: {fileID: 0}
  m_GameObject: {fileID: 1914341889}
  m_LocalRotation: {x: 0.40821794, y: -0.23456973, z: 0.109381676, w: 0.87542605}
  m_LocalPosition: {x: 0, y: 3, z: 0}
  m_LocalScale: {x: 1, y: 1, z: 1}
  m_Children: []
  m_Father: {fileID: 0}
  m_RootOrder: 1
  m_LocalEulerAnglesHint: {x: 0, y: 0, z: 0}
--- !u!1 &2045485428
GameObject:
  m_ObjectHideFlags: 0
  m_CorrespondingSourceObject: {fileID: 157684, guid: 4f08c1e18e3fd2b438baf97a89b44f8e,
    type: 2}
  m_PrefabInternal: {fileID: 1818882113}
  serializedVersion: 6
  m_Component:
  - component: {fileID: 2045485429}
  m_Layer: 0
  m_Name: mushroom_All1
  m_TagString: Untagged
  m_Icon: {fileID: 0}
  m_NavMeshLayer: 0
  m_StaticEditorFlags: 0
  m_IsActive: 1
--- !u!4 &2045485429
Transform:
  m_ObjectHideFlags: 0
  m_CorrespondingSourceObject: {fileID: 497000, guid: 4f08c1e18e3fd2b438baf97a89b44f8e,
    type: 2}
  m_PrefabInternal: {fileID: 1818882113}
  m_GameObject: {fileID: 2045485428}
  m_LocalRotation: {x: 0, y: 0, z: 0, w: 1}
  m_LocalPosition: {x: 25.52, y: 64.08699, z: 20.4}
  m_LocalScale: {x: 0.1838007, y: 0.1838007, z: 0.1838007}
  m_Children:
  - {fileID: 785476640}
  m_Father: {fileID: 0}
  m_RootOrder: 2
  m_LocalEulerAnglesHint: {x: 0, y: 0, z: 0}
--- !u!1 &2140870668
GameObject:
  m_ObjectHideFlags: 0
  m_CorrespondingSourceObject: {fileID: 117160, guid: a1d761911149f7845aac6ec33c36f40e,
    type: 2}
  m_PrefabInternal: {fileID: 1311272104}
  serializedVersion: 6
  m_Component:
  - component: {fileID: 2140870669}
  m_Layer: 0
  m_Name: mushroom_All3
  m_TagString: Untagged
  m_Icon: {fileID: 0}
  m_NavMeshLayer: 0
  m_StaticEditorFlags: 0
  m_IsActive: 1
--- !u!4 &2140870669
Transform:
  m_ObjectHideFlags: 0
  m_CorrespondingSourceObject: {fileID: 424814, guid: a1d761911149f7845aac6ec33c36f40e,
    type: 2}
  m_PrefabInternal: {fileID: 1311272104}
  m_GameObject: {fileID: 2140870668}
  m_LocalRotation: {x: 0, y: 0, z: 0, w: 1}
  m_LocalPosition: {x: 19.07, y: 64.3533, z: 19.969467}
  m_LocalScale: {x: 0.1905849, y: 0.1905849, z: 0.1905849}
  m_Children:
  - {fileID: 1087567850}
  m_Father: {fileID: 0}
  m_RootOrder: 4
  m_LocalEulerAnglesHint: {x: 0, y: 0, z: 0}
--- !u!1 &2145052102
GameObject:
  m_ObjectHideFlags: 0
  m_CorrespondingSourceObject: {fileID: 0}
  m_PrefabInternal: {fileID: 0}
  serializedVersion: 6
  m_Component:
  - component: {fileID: 2145052107}
  - component: {fileID: 2145052106}
  - component: {fileID: 2145052105}
  - component: {fileID: 2145052104}
  - component: {fileID: 2145052103}
  m_Layer: 0
  m_Name: Main Camera
  m_TagString: MainCamera
  m_Icon: {fileID: 0}
  m_NavMeshLayer: 0
  m_StaticEditorFlags: 0
  m_IsActive: 1
--- !u!81 &2145052103
AudioListener:
  m_ObjectHideFlags: 0
  m_CorrespondingSourceObject: {fileID: 0}
  m_PrefabInternal: {fileID: 0}
  m_GameObject: {fileID: 2145052102}
  m_Enabled: 1
--- !u!124 &2145052104
Behaviour:
  m_ObjectHideFlags: 0
  m_CorrespondingSourceObject: {fileID: 0}
  m_PrefabInternal: {fileID: 0}
  m_GameObject: {fileID: 2145052102}
  m_Enabled: 1
--- !u!92 &2145052105
Behaviour:
  m_ObjectHideFlags: 0
  m_CorrespondingSourceObject: {fileID: 0}
  m_PrefabInternal: {fileID: 0}
  m_GameObject: {fileID: 2145052102}
  m_Enabled: 1
--- !u!20 &2145052106
Camera:
  m_ObjectHideFlags: 0
  m_CorrespondingSourceObject: {fileID: 0}
  m_PrefabInternal: {fileID: 0}
  m_GameObject: {fileID: 2145052102}
  m_Enabled: 1
  serializedVersion: 2
  m_ClearFlags: 1
  m_BackGroundColor: {r: 0.19215687, g: 0.3019608, b: 0.4745098, a: 0.019607844}
  m_projectionMatrixMode: 1
  m_SensorSize: {x: 36, y: 24}
  m_LensShift: {x: 0, y: 0}
  m_FocalLength: 50
  m_NormalizedViewPortRect:
    serializedVersion: 2
    x: 0
    y: 0
    width: 1
    height: 1
  near clip plane: 0.3
  far clip plane: 1000
  field of view: 60
  orthographic: 0
  orthographic size: 5
  m_Depth: -1
  m_CullingMask:
    serializedVersion: 2
    m_Bits: 4294967295
  m_RenderingPath: -1
  m_TargetTexture: {fileID: 0}
  m_TargetDisplay: 0
  m_TargetEye: 3
  m_HDR: 0
  m_AllowMSAA: 1
  m_AllowDynamicResolution: 0
  m_ForceIntoRT: 0
  m_OcclusionCulling: 1
  m_StereoConvergence: 10
  m_StereoSeparation: 0.022
--- !u!4 &2145052107
Transform:
  m_ObjectHideFlags: 0
  m_CorrespondingSourceObject: {fileID: 0}
  m_PrefabInternal: {fileID: 0}
  m_GameObject: {fileID: 2145052102}
  m_LocalRotation: {x: 0, y: 0, z: 0, w: 1}
  m_LocalPosition: {x: 0, y: 1, z: -10}
  m_LocalScale: {x: 1, y: 1, z: 1}
  m_Children: []
  m_Father: {fileID: 0}
  m_RootOrder: 0
  m_LocalEulerAnglesHint: {x: 0, y: 0, z: 0}
